<svg xmlns="http://www.w3.org/2000/svg" width="36" height="36" viewBox="0 0 36 36">
    <g fill="none" fill-rule="nonzero">
        <path fill="#FFF" d="M30.795 10.987h-2.58V7.76h1.29v-2.15H6.28v2.15h1.29v3.226H4.99l1.29 1.935h1.29V30.34h6.452v-9.246a3.882 3.882 0 0 1 3.87-3.871 3.882 3.882 0 0 1 3.871 3.87v9.247h6.451V12.922h1.29l1.291-1.935z"/>
        <path fill="#3F4A54" d="M30.795 29.803H28.86v-3.118c.365 0 .645-.28.645-.645a.634.634 0 0 0-.645-.645v-3.011c.365 0 .645-.28.645-.645a.634.634 0 0 0-.645-.645v-7.527h.645a.672.672 0 0 0 .537-.28l1.29-1.935a.622.622 0 0 0 .022-.666c-.129-.215-.322-.344-.559-.344H28.86V8.406h.645c.365 0 .645-.28.645-.645v-2.15a.634.634 0 0 0-.645-.645H6.28a.634.634 0 0 0-.645.645v2.15c0 .366.28.645.645.645h5.591v.43c0 .366.28.645.645.645.366 0 .646-.28.646-.645v-.43h4.085v.43c0 .366.28.645.645.645.366 0 .646-.28.646-.645v-.43h4.085v.43c0 .366.28.645.646.645.365 0 .645-.28.645-.645v-.43h3.655v1.936H4.99a.62.62 0 0 0-.56.344.67.67 0 0 0 .022.666l1.29 1.936c.13.172.323.28.538.28h.645v7.526a.634.634 0 0 0-.645.645c0 .365.28.645.645.645v3.01a.634.634 0 0 0-.645.646c0 .365.28.645.645.645v3.01H4.99a.634.634 0 0 0-.645.645c0 .366.28.646.645.646l25.805.107c.366 0 .645-.28.645-.645a.647.647 0 0 0-.645-.645zM6.925 6.256H28.86v.86H6.925v-.86zM27.57 29.803l-5.16-.022v-3.096h5.16v3.118zm-12.902-4.408v-3.011c.365 0 .645-.28.645-.645a.634.634 0 0 0-.645-.645 3.221 3.221 0 0 1 3.225-3.226 3.221 3.221 0 0 1 3.226 3.226.634.634 0 0 0-.645.645c0 .365.28.645.645.645v3.01a.634.634 0 0 0-.645.646c0 .365.28.645.645.645v3.075l-6.451-.022v-3.053c.365 0 .645-.28.645-.645a.634.634 0 0 0-.645-.645zm12.902 0h-5.16v-3.011h5.16v3.01zM6.194 11.632h23.397l-.43.645H6.624l-.43-.645zm2.022 1.935h19.353v7.527h-5.16a4.515 4.515 0 1 0-9.032 0H8.216v-7.527zm0 8.817h5.16v3.01h-5.16v-3.01zm0 4.3h5.16v3.054l-5.16-.021v-3.032z"/>
    </g>
</svg>
