<svg xmlns="http://www.w3.org/2000/svg" width="84" height="84" viewBox="0 0 84 84">
    <g fill="none" fill-rule="nonzero">
        <path fill="#63D792" d="M11.705 58.095l.313.26c17.185 14.745 42.675 14.64 59.755-.26H11.705z"/>
        <path fill="#7392A6" d="M45.656 63.287l-33.951-5.192 7.835-15.576h2.611L35.21 16.56l20.893 41.536-10.447 5.192"/>
        <path fill="#597586" d="M43.567 49.684l2.09 13.603 10.446-5.192-12.536-8.41"/>
        <path fill="#FFF" d="M40.433 26.943L35.21 16.56l-7.835 15.575h7.835l5.223-5.192"/>
        <path fill="#7392A6" d="M67.803 58.095h3.97L55.894 26.943 48.268 42.52l7.835 15.576h11.7"/>
        <path fill="#597586" d="M50.85 37.246l-2.582 5.273 7.835 15.576h3.134l-3.239-15.576-5.148-5.273"/>
        <path fill="#678598" d="M40.433 26.943l-5.223 5.192v11.942l8.357 5.607 12.536 8.411-15.67-31.152"/>
        <path fill="#CECFD0" d="M35.21 16.56v15.575l5.223-5.192L35.21 16.56"/>
        <path fill="#FFF" d="M55.894 26.943l-5.067 10.384 5.171 5.192 5.171-5.192z"/>
        <path fill="#424351" d="M56.103 59.653c-.575 0-1.15-.312-1.41-.883l-7.835-15.576c-.21-.415-.21-.934 0-1.402l7.626-15.575c.26-.52.783-.883 1.41-.883.627 0 1.15.311 1.41.83l15.879 31.152c.366.779.105 1.714-.679 2.077-.783.363-1.724.104-2.09-.675l-14.52-28.296-5.902 12.097L57.46 57.42c.366.779.052 1.713-.68 2.077a1.453 1.453 0 0 1-.678.156z"/>
        <path fill="#424351" d="M45.656 64.845h-.26l-16.977-2.596c-.835-.156-1.462-.935-1.305-1.766.156-.83.94-1.453 1.776-1.298l16.505 2.544 9.977-4.984c.783-.363 1.723-.052 2.089.675.366.779.052 1.713-.68 2.077l-10.446 5.192a1.453 1.453 0 0 1-.679.156z"/>
        <path fill="#424351" d="M56.103 59.653c-.575 0-1.15-.312-1.41-.883L35.21 20.038 23.562 43.194c-.261.52-.784.883-1.41.883h-1.62L13.115 58.77c-.365.779-1.306 1.09-2.09.675a1.49 1.49 0 0 1-.678-2.077l7.835-15.576c.261-.519.783-.882 1.41-.882h1.62l12.64-25.077c.26-.52.783-.883 1.41-.883.627 0 1.15.312 1.41.883l20.893 41.535c.366.779.053 1.713-.679 2.077-.313.156-.522.208-.783.208z"/>
    </g>
</svg>
