<svg xmlns="http://www.w3.org/2000/svg" width="58" height="58" viewBox="0 0 58 58">
    <g fill="none" fill-rule="nonzero">
        <path fill="#8FBEFF" d="M23.647 45.596h-5.353v-7.719h5.353z"/>
        <g transform="translate(16.765 7)">
            <path fill="#FFF" d="M10.324 24.316h4.588v16.21c0 1.274-1.033 2.316-2.294 2.316-1.262 0-2.294-1.042-2.294-2.316 0 1.274-1.033 2.316-2.295 2.316-1.261 0-2.294-1.042-2.294-2.316v-16.21h4.589z"/>
            <path fill="#FFF" d="M7.265 12.737h6.117c2.103 0 3.824 1.737 3.824 3.86v11.578H1.529l1.492-12.042c.229-1.93 1.873-3.396 3.785-3.396h.459z"/>
            <path fill="#8FBEFF" d="M9.559 21.228a1.146 1.146 0 0 1-.306-.926l.65-5.25c.038-.23.23-.385.42-.385.23 0 .421.154.421.386l.65 5.249c.038.347-.076.656-.306.926a1.077 1.077 0 0 1-1.53 0zM14.912 28.175V30.8c-.268.039-.497.077-.765.077H5.735v-2.702h9.177z"/>
            <path fill="#424351" d="M1.53 29.333h-.154a1.159 1.159 0 0 1-.994-1.273l1.492-12.042c.305-2.548 2.447-4.44 4.932-4.44h.459c.65 0 1.147.503 1.147 1.159s-.497 1.158-1.147 1.158h-.46a2.656 2.656 0 0 0-2.637 2.354L2.676 28.33a1.158 1.158 0 0 1-1.147 1.004zM8.03 44c-1.912 0-3.442-1.544-3.442-3.474v-12.35c0-.657.497-1.158 1.147-1.158s1.147.501 1.147 1.157v12.351c0 .656.497 1.158 1.147 1.158s1.147-.502 1.147-1.158v-12.35c0-.657.498-1.158 1.148-1.158.65 0 1.147.501 1.147 1.157v12.351c0 1.93-1.53 3.474-3.442 3.474z"/>
            <path fill="#444B54" d="M1.53 38.596c-.65 0-1.148-.501-1.148-1.157v-5.404c0-.656.497-1.158 1.147-1.158s1.147.502 1.147 1.158v5.404c0 .656-.497 1.157-1.147 1.157z"/>
            <path fill="#424351" d="M14.912 31.958c-.65 0-1.147-.502-1.147-1.158v-2.625c0-.656.497-1.157 1.147-1.157h1.147v-8.106c0-1.89-.344-5.017-2.677-5.017-.65 0-1.147-.502-1.147-1.158 0-.656.497-1.158 1.147-1.158 4.627 0 4.97 5.596 4.97 7.333v9.263c0 .657-.496 1.158-1.146 1.158h-1.147V30.8c0 .656-.497 1.158-1.147 1.158z"/>
            <ellipse cx="10.324" cy="5.018" fill="#FFF" rx="3.824" ry="3.86"/>
            <path fill="#424351" d="M10.324 10.035c-2.753 0-4.971-2.239-4.971-5.017C5.353 2.238 7.57 0 10.323 0c2.753 0 4.971 2.239 4.971 5.018 0 2.778-2.218 5.017-4.97 5.017zm0-7.72c-1.492 0-2.677 1.197-2.677 2.703 0 1.505 1.185 2.701 2.677 2.701C11.814 7.72 13 6.523 13 5.018c0-1.506-1.185-2.702-2.676-2.702zM12.618 44c-1.912 0-3.442-1.544-3.442-3.474 0-.656.498-1.158 1.148-1.158.65 0 1.147.502 1.147 1.158 0 .656.497 1.158 1.147 1.158s1.147-.502 1.147-1.158V30.491c0-.656.497-1.158 1.147-1.158s1.147.502 1.147 1.158v10.035c0 1.93-1.53 3.474-3.441 3.474z"/>
        </g>
        <path fill="#424351" d="M37.03 51H17.146c-.65 0-1.147-.502-1.147-1.158 0-.656.497-1.158 1.147-1.158H37.03c.65 0 1.147.502 1.147 1.158 0 .656-.497 1.158-1.147 1.158zM40.853 51c-.306 0-.612-.116-.803-.347a1.116 1.116 0 0 1-.344-.81c0-.31.115-.618.344-.811l.153-.155c.076-.038.115-.077.191-.116.077-.038.153-.038.23-.077.382-.077.764.039 1.032.309.23.232.344.502.344.81 0 .31-.115.618-.344.811-.191.27-.497.386-.803.386z"/>
    </g>
</svg>
