<svg xmlns="http://www.w3.org/2000/svg" width="58" height="58" viewBox="0 0 58 58">
    <g fill="none" fill-rule="nonzero">
        <path fill="#FFF" d="M34.69 17.816v-1.527a1.121 1.121 0 0 1-1.138-1.144H11.93c-2.086 0-3.793 1.717-3.793 3.816v5.342c2.731 0 4.931 2.213 4.931 4.96 0 2.748-2.2 4.96-4.931 4.96v3.816c0 2.1 1.707 3.816 3.793 3.816h21.62c0-.648.494-1.144 1.139-1.144v-1.527a1.121 1.121 0 0 1-1.138-1.145c0-.648.493-1.144 1.138-1.144v-1.527a1.121 1.121 0 0 1-1.138-1.144c0-.649.493-1.145 1.138-1.145v-1.526a1.121 1.121 0 0 1-1.138-1.145c0-.649.493-1.145 1.138-1.145v-1.526a1.121 1.121 0 0 1-1.138-1.145c0-.649.493-1.145 1.138-1.145v-1.526a1.121 1.121 0 0 1-1.138-1.145c0-.648.493-1.144 1.138-1.144v-1.527a1.121 1.121 0 0 1-1.138-1.144c0-.65.493-1.145 1.138-1.145z"/>
        <g fill="#E6E6EF">
            <path d="M29 23.921H17.62a1.121 1.121 0 0 1-1.137-1.145c0-.648.493-1.144 1.138-1.144H29c.645 0 1.138.496 1.138 1.144 0 .649-.493 1.145-1.138 1.145zM29 31.553H17.62a1.121 1.121 0 0 1-1.137-1.145c0-.649.493-1.145 1.138-1.145H29c.645 0 1.138.496 1.138 1.145s-.493 1.145-1.138 1.145zM25.207 35.368H17.62a1.121 1.121 0 0 1-1.138-1.144c0-.649.493-1.145 1.138-1.145h7.586c.645 0 1.138.496 1.138 1.145 0 .648-.493 1.144-1.138 1.144zM29 35.368c-.076 0-.152 0-.228-.038a.537.537 0 0 1-.227-.076c-.076-.038-.114-.076-.19-.115-.076-.038-.114-.076-.19-.152-.19-.153-.303-.458-.303-.763 0-.306.114-.61.341-.802.418-.42 1.176-.42 1.594 0 .227.23.34.496.34.802 0 .305-.113.61-.34.801-.19.229-.494.343-.797.343zM21.414 27.737H17.62a1.121 1.121 0 0 1-1.138-1.145c0-.649.493-1.145 1.138-1.145h3.793c.645 0 1.138.496 1.138 1.145s-.493 1.145-1.138 1.145zM29 27.737h-3.793a1.121 1.121 0 0 1-1.138-1.145c0-.649.493-1.145 1.138-1.145H29c.645 0 1.138.496 1.138 1.145s-.493 1.145-1.138 1.145z"/>
        </g>
        <path fill="#E8B65F" d="M49.862 18.96c0-2.098-1.707-3.815-3.793-3.815H35.828c0 .648-.494 1.144-1.138 1.144v1.527c.644 0 1.138.496 1.138 1.145 0 .648-.494 1.144-1.138 1.144v1.527c.644 0 1.138.496 1.138 1.144 0 .649-.494 1.145-1.138 1.145v1.526c.644 0 1.138.496 1.138 1.145s-.494 1.145-1.138 1.145v1.526c.644 0 1.138.496 1.138 1.145s-.494 1.145-1.138 1.145v1.526c.644 0 1.138.496 1.138 1.145 0 .648-.494 1.144-1.138 1.144v1.527c.644 0 1.138.496 1.138 1.144 0 .65-.494 1.145-1.138 1.145v1.527c.644 0 1.138.496 1.138 1.144h10.241c2.086 0 3.793-1.717 3.793-3.816V18.961z"/>
        <g fill="#424351">
            <path d="M46.069 43h-7.586a1.121 1.121 0 0 1-1.138-1.145c0-.648.493-1.144 1.138-1.144h7.586a2.647 2.647 0 0 0 2.655-2.672V18.961a2.647 2.647 0 0 0-2.655-2.672h-7.586a1.121 1.121 0 0 1-1.138-1.144c0-.649.493-1.145 1.138-1.145h7.586C48.8 14 51 16.213 51 18.96v19.08c0 2.747-2.2 4.96-4.931 4.96zM30.897 40.71H11.93a2.647 2.647 0 0 1-2.655-2.67v-2.786a6.093 6.093 0 0 0 4.93-5.99 6.093 6.093 0 0 0-4.93-5.992v-4.311a2.647 2.647 0 0 1 2.655-2.672h18.966c.644 0 1.137-.496 1.137-1.144 0-.649-.493-1.145-1.137-1.145H11.93C9.2 14 7 16.213 7 18.96v5.343c0 .648.493 1.144 1.138 1.144 2.086 0 3.793 1.717 3.793 3.816 0 2.099-1.707 3.816-3.793 3.816-.645 0-1.138.496-1.138 1.145v3.815C7 40.787 9.2 43 11.931 43h18.966c.644 0 1.137-.496 1.137-1.145 0-.648-.493-1.144-1.137-1.144z"/>
        </g>
    </g>
</svg>
